{"name":"Crear un usuario","id":"crear-un-usuario-usando-post;crear-un-usuario","testSteps":[{"number":1,"description":"Given Deseo Crear un usuario en \"https://reqres.in/\"","duration":76,"startTime":"2021-06-25T13:26:35.018-05:00[America/Bogota]","result":"SUCCESS","precondition":false,"level":0},{"number":2,"description":"When Envio la información del usuario para \"api/users\"\r\n| name | pepitoPerez |\r\n| job | documentador |","duration":8053,"startTime":"2021-06-25T13:26:35.099-05:00[America/Bogota]","result":"SUCCESS","precondition":false,"level":0,"children":[{"number":3,"description":"GET https://reqres.in/api/users?page\u003d2\r","duration":1,"startTime":"2021-06-25T13:26:42.157-05:00[America/Bogota]","result":"SUCCESS","restQuery":{"method":"GET","path":"https://reqres.in/api/users?page\u003d2\r","content":"\r","contentType":"null","requestHeaders":"Accept\u003d*/*\r","requestCookies":"\r","responseHeaders":"Date: Fri, 25 Jun 2021 18:26:42 GMT\r\nContent-Type: application/json; charset\u003dutf-8\r\nTransfer-Encoding: chunked\r\nConnection: keep-alive\r\nX-Powered-By: Express\r\nAccess-Control-Allow-Origin: *\r\nEtag: W/\"406-ut0vzoCuidvyMf8arZpMpJ6ZRDw\"\r\nVia: 1.1 vegur\r\nCache-Control: max-age\u003d14400\r\nCF-Cache-Status: HIT\r\nAge: 241\r\ncf-request-id: 0ae605a4550000f311e028b000000001\r\nExpect-CT: max-age\u003d604800, report-uri\u003d\"https://report-uri.cloudflare.com/cdn-cgi/beacon/expect-ct\"\r\nReport-To: {\"endpoints\":[{\"url\":\"https:\\/\\/a.nel.cloudflare.com\\/report\\/v2?s\u003dSRJd7sVWsXkKqievKV6zbWuQEG1U9z0D45JFytOl8VbxCoGIB3bnCPUg7f%2FS6TqMBAls3tagItSCjNnL2UaiIMMm1cVeYRdcgZYLjP6ecVOYIaHnlFAH\"}],\"group\":\"cf-nel\",\"max_age\":604800}\r\nNEL: {\"report_to\":\"cf-nel\",\"max_age\":604800}\r\nVary: Accept-Encoding\r\nServer: cloudflare\r\nCF-RAY: 66503ee6ed34f311-ATL\r\nContent-Encoding: gzip\r\nalt-svc: h3-27\u003d\":443\"; ma\u003d86400, h3-28\u003d\":443\"; ma\u003d86400, h3-29\u003d\":443\"; ma\u003d86400, h3\u003d\":443\"; ma\u003d86400\r","responseCookies":"\r","responseBody":"{\n    \"page\": 2,\n    \"per_page\": 6,\n    \"total\": 12,\n    \"total_pages\": 2,\n    \"data\": [\n        {\n            \"id\": 7,\n            \"email\": \"michael.lawson@reqres.in\",\n            \"first_name\": \"Michael\",\n            \"last_name\": \"Lawson\",\n            \"avatar\": \"https://reqres.in/img/faces/7-image.jpg\"\n        },\n        {\n            \"id\": 8,\n            \"email\": \"lindsay.ferguson@reqres.in\",\n            \"first_name\": \"Lindsay\",\n            \"last_name\": \"Ferguson\",\n            \"avatar\": \"https://reqres.in/img/faces/8-image.jpg\"\n        },\n        {\n            \"id\": 9,\n            \"email\": \"tobias.funke@reqres.in\",\n            \"first_name\": \"Tobias\",\n            \"last_name\": \"Funke\",\n            \"avatar\": \"https://reqres.in/img/faces/9-image.jpg\"\n        },\n        {\n            \"id\": 10,\n            \"email\": \"byron.fields@reqres.in\",\n            \"first_name\": \"Byron\",\n            \"last_name\": \"Fields\",\n            \"avatar\": \"https://reqres.in/img/faces/10-image.jpg\"\n        },\n        {\n            \"id\": 11,\n            \"email\": \"george.edwards@reqres.in\",\n            \"first_name\": \"George\",\n            \"last_name\": \"Edwards\",\n            \"avatar\": \"https://reqres.in/img/faces/11-image.jpg\"\n        },\n        {\n            \"id\": 12,\n            \"email\": \"rachel.howell@reqres.in\",\n            \"first_name\": \"Rachel\",\n            \"last_name\": \"Howell\",\n            \"avatar\": \"https://reqres.in/img/faces/12-image.jpg\"\n        }\n    ],\n    \"support\": {\n        \"url\": \"https://reqres.in/#support-heading\",\n        \"text\": \"To keep ReqRes free, contributions towards server costs are appreciated!\"\n    }\n}","statusCode":200},"precondition":false,"level":1},{"number":4,"description":"POST https://reqres.in/api/users\r","duration":1,"startTime":"2021-06-25T13:26:43.149-05:00[America/Bogota]","result":"SUCCESS","restQuery":{"method":"POST","path":"https://reqres.in/api/users\r","content":"{\n    \"name\": \"pepitoPerez\",\n    \"job\": \"documentador\"\n}\r","contentType":"application/json","requestHeaders":"Accept\u003d*/*\r\n\t\t\t\tContent-Type\u003dapplication/json; charset\u003dUTF-8\r","requestCookies":"\r","responseHeaders":"Date: Fri, 25 Jun 2021 18:26:43 GMT\r\nContent-Type: application/json; charset\u003dutf-8\r\nContent-Length: 93\r\nConnection: keep-alive\r\nX-Powered-By: Express\r\nAccess-Control-Allow-Origin: *\r\nEtag: W/\"5d-FtKukLkcWm80a8seQ4sa3ALGyLs\"\r\nVia: 1.1 vegur\r\nCF-Cache-Status: DYNAMIC\r\ncf-request-id: 0ae605a80c000007de54994000000001\r\nExpect-CT: max-age\u003d604800, report-uri\u003d\"https://report-uri.cloudflare.com/cdn-cgi/beacon/expect-ct\"\r\nReport-To: {\"endpoints\":[{\"url\":\"https:\\/\\/a.nel.cloudflare.com\\/report\\/v2?s\u003dGqmlMsFG0ENIO4HrMyENdBJj0RRJSEunG6W%2BdYP5tvnhXcUEWvkE%2Bd8778f0HI9eHoe0RsDp7eHoklNUfwP4hkjmnU2KiY7vb%2BEBXdfLtiymm6PEOyp8\"}],\"group\":\"cf-nel\",\"max_age\":604800}\r\nNEL: {\"report_to\":\"cf-nel\",\"max_age\":604800}\r\nServer: cloudflare\r\nCF-RAY: 66503eecd92007de-ATL\r\nalt-svc: h3-27\u003d\":443\"; ma\u003d86400, h3-28\u003d\":443\"; ma\u003d86400, h3-29\u003d\":443\"; ma\u003d86400, h3\u003d\":443\"; ma\u003d86400\r","responseCookies":"\r","responseBody":"{\n    \"name\": \"pepitoPerez\",\n    \"job\": \"documentador\",\n    \"id\": \"707\",\n    \"createdAt\": \"2021-06-25T18:26:43.523Z\"\n}","statusCode":201},"precondition":false,"level":1}]},{"number":5,"description":"Then Valido que la respuesta tenga status 200 y contenga id 10","duration":3,"startTime":"2021-06-25T13:26:43.154-05:00[America/Bogota]","result":"SUCCESS","precondition":false,"level":0}],"userStory":{"id":"crear-un-usuario-usando-post","storyName":"Crear un Usuario usando Post","path":"file:///C:/Users/jonathan.castro/OneDrive%20-%20SOPHOS%20SOLUTIONS%20SAS/SEMILLERO%20DE%20AUTOMATIZACIÓN/API/src/test/resources/com/sophossolutions/features/Api.feature","narrative":"  Yo deseo aprender a consumir apis","type":"feature"},"featureTag":{"name":"Features/Crear un Usuario usando Post","type":"feature","displayName":"Features/Crear un Usuario usando Post"},"title":"Crear un usuario","tags":[{"name":"tag1","type":"tag","displayName":"tag1"}],"startTime":"2021-06-25T13:26:34.847-05:00[America/Bogota]","duration":8314,"projectKey":"","isManualTestingUpToDate":false,"manual":false,"testSource":"Cucumber","result":"SUCCESS"}